Blessing_Alacrity.png
size: 256, 128
format: RGBA8888
filter: Linear,Linear
repeat: none
Alacrity1
  rotate: false
  xy: 0, 0
  size: 128, 128
  orig: 128, 128
  offset: 0, 0
  index: -1
Alacrity2
  rotate: false
  xy: 128, 0
  size: 128, 128
  orig: 128, 128
  offset: 0, 0
  index: -1
