Blessing_Agility.png
size: 256, 128
format: RGBA8888
filter: Linear,Linear
repeat: none
Blessing_Agility1
  rotate: false
  xy: 0, 0
  size: 128, 128
  orig: 128, 128
  offset: 0, 0
  index: -1
Blessing_Agility2
  rotate: false
  xy: 128, 0
  size: 128, 128
  orig: 128, 128
  offset: 0, 0
  index: -1
