{
    com.badlogic.gdx.graphics.g2d.BitmapFont: {
        default: { file: fonts/Kingthings_Calligraphica.fnt,
            scaledSize: -1,
            markupEnabled: false,
            flip : false },
        large: { file: fonts/Kingthings_Calligraphica_Large.fnt,
            scaledSize: -1,
            markupEnabled: false,
            flip: false },
        small: { file: fonts/Kingthings_Calligraphica_Small.fnt,
            scaledSize: -1,
            markupEnabled: false,
            flip: false }
    },
    com.badlogic.gdx.graphics.Color: {
        white: { r: 1, g: 1, b: 1, a: 1 },
        green: { r: 0, g: 1, b: 0, a: 1 },
        gray:  { r: 0.5, g: 0.5, b: 0.5, a: 1 },
        black: { r: 0, g: 0, b: 0, a: 1 },
        red:   { r: 1, g: 0, b: 0.1, a: 1 },
        gold:  { r: 0.869, g: 0.647, b: 0.125, a:1 }
    },
    com.badlogic.gdx.scenes.scene2d.ui.Button$ButtonStyle: {
        default: {  },
        buffsImage: { down: Buffs, up: Buffs },
        compassImage: { down: Compass, up: Compass },
        creaturesSlainImage: { down: CreaturesSlain, up: CreaturesSlain },
        lifeImage: { down: Life, up: Life },
        menuButtonImage: { down: MenuButton, up: MenuButton },
        timerImage: { down: Timer, up: Timer }
    }
}