{
    com.badlogic.gdx.graphics.g2d.BitmapFont: {
        default: { file: fonts/Kingthings_Calligraphica.fnt,
            scaledSize: -1,
            markupEnabled: false,
            flip : false },
        large: { file: fonts/Kingthings_Calligraphica_Large.fnt,
            scaledSize: -1,
            markupEnabled: false,
            flip: false },
        small: { file: fonts/Kingthings_Calligraphica_Small.fnt,
            scaledSize: -1,
            markupEnabled: false,
            flip: false }
    },
    com.badlogic.gdx.graphics.Color: {
        white: { r: 1, g: 1, b: 1, a: 1 },
        green: { r: 0, g: 1, b: 0, a: 1 },
        gray:  { r: 0.5, g: 0.5, b: 0.5, a: 1 },
        black: { r: 0, g: 0, b: 0, a: 1 },
        red:   { r: 1, g: 0, b: 0.1, a: 1 }
    },
    com.badlogic.gdx.scenes.scene2d.ui.Label$LabelStyle: {
        default: { font: default, fontColor: white },
        label_Large: { font: large, fontColor: white },
        label_Small: { font: small, fontColor: white },
        label_Death: { font: default, fontColor: red }
    },
    com.badlogic.gdx.scenes.scene2d.ui.Button$ButtonStyle: {
        default: {  },
        MenuButton: { down: GreyMenu, up: WhiteMenu },
        SwapSwordButton: { down: SwapWeaponSwordAndShield_Glow, up: SwapWeaponSwordAndShield },
        SwapBowButton: { down: SwapWeaponBowAndArrow_Glow, up: SwapWeaponBowAndArrow },
        ShieldButton: { down: Shield_Glow, up: Shield },
        SwordButton: { down: Sword_Glow, up: Sword },
        BowButton: { down: BowAndArrow_Glow, up: BowAndArrow },
        Compass: { down: Compass, up: Compass },
        Life_Active: { down: Life_Active2, up: Life_Active1 },
        Life_Inactive: { down: Life_Inactive2, up: Life_Inactive1 }
    }
}